{
  "project_info": {
    "project_number": "615195249128",
    "firebase_url": "https://movietime-485ec.firebaseio.com",
    "project_id": "movietime-485ec",
    "storage_bucket": "movietime-485ec.appspot.com"
  },
  "client": [
    {
      "client_info": {
        "mobilesdk_app_id": "1:615195249128:android:d4c22dd27cbf1fb9523c5d",
        "android_client_info": {
          "package_name": "com.ateam.movietime"
        }
      },
      "oauth_client": [
        {
          "client_id": "615195249128-dj3qtsqkbmm56gl9l3vbt96mbpp94k0n.apps.googleusercontent.com",
          "client_type": 1,
          "android_info": {
            "package_name": "com.ateam.movietime",
            "certificate_hash": "41730d5488bfa0ff55b590804b8cf14f34dbbb71"
          }
        },
        {
          "client_id": "615195249128-jnukhtpmh4tpbo2u271rak952toasg4d.apps.googleusercontent.com",
          "client_type": 1,
          "android_info": {
            "package_name": "com.ateam.movietime",
            "certificate_hash": "18ddc08d998ad4c4df267d661fc08e09fa37138a"
          }
        },
        {
          "client_id": "615195249128-iivbl1fp0tjla30mvpp9lngmhtm5pqad.apps.googleusercontent.com",
          "client_type": 3
        }
      ],
      "api_key": [
        {
          "current_key": "AIzaSyBB2BqLdyOs1kgK-a0HmAnTWQGGzSMIx84"
        }
      ],
      "services": {
        "appinvite_service": {
          "other_platform_oauth_client": [
            {
              "client_id": "615195249128-iivbl1fp0tjla30mvpp9lngmhtm5pqad.apps.googleusercontent.com",
              "client_type": 3
            }
          ]
        }
      }
    }
  ],
  "configuration_version": "1"
}